{
  "apps" : [{
    "script"        : "bin/www",
    "watch"         : true,
    "ignore_watch"  : [".git/**", "public/**", "logs/**", "views/**"],
    "name"          : "moocs4",
    "env": {
      "NODE_ENV": "lan",
      "HOST": "",
      "NODE_APP_INSTANCE": ""
    }
  }]
}